Bio-logging Citation Network
…
Code

pubmed <- readxl::read_excel(here::here("data", "pubmed-pruned.xlsx"),
                             sheet = 1) %>% 
  clean_names() %>% 
  filter(retained == "y") %>% 
  arrange(order)

Code

one_work <- cr_works(dois = pubmed$doi[1])
one_refs <- one_work$data$reference[[1]]
one_refs

# A tibble: 44 × 9
   key      first.page volume author       year  unstructured      journal.title
   <chr>    <chr>      <chr>  <chr>        <chr> <chr>             <chr>        
 1 359_CR1  37         1      DP Armstrong 2008  Armstrong DP. Mo… Avian Biol R…
 2 359_CR2  e13843     9      DP Armstrong 2021  Armstrong DP, Bo… Conserv Biol 
 3 359_CR3  609        29     DP Armstrong 2002  Armstrong DP, Sc… J Biogeogr   
 4 359_CR4  20         23     DP Armstrong 2008  Armstrong DP, Se… Trends Ecol …
 5 359_CR5  180        1      DG Barron    2010  Barron DG, Brawn… Methods Ecol…
 6 359_CR6  515        60     O Berger-Tal 2014  Berger-Tal O, Sa… Curr Zool    
 7 359_CR7  1801       41     C Bracis     2018  Bracis C, Bildst… Ecography    
 8 359_CR8  108239     238    CM Bubac     2019  Bubac CM, Johnso… Biol Cons    
 9 359_CR9  2157       365    F Cagnacci   2010  Cagnacci F, Boit… Philos Trans…
10 359_CR10 S7         14     I Carter     2017  Carter I, Foster… EcoHealth    
# … with 34 more rows, and 2 more variables: doi.asserted.by <chr>, DOI <chr>
…
